[gd_scene load_steps=2 format=3 uid="uid://ckdvcoh7h1285"]

[ext_resource type="PackedScene" uid="uid://hhm7vn7m3eqc" path="res://characters/tank/tank.tscn" id="1_auy7j"]

[node name="Game" type="Node2D"]

[node name="Tank" parent="." instance=ExtResource("1_auy7j")]
position = Vector2(38, 32)
