[gd_scene load_steps=3 format=3 uid="uid://4u42eo3jtsv4"]

[ext_resource type="Script" path="res://ui/ui.gd" id="1_58myq"]
[ext_resource type="PackedScene" uid="uid://708t47am5inv" path="res://ui/menus/main_menu.tscn" id="2_01t37"]

[node name="Ui" type="Control"]
layout_mode = 3
anchors_preset = 0
script = ExtResource("1_58myq")

[node name="MainMenu" parent="." instance=ExtResource("2_01t37")]
