[gd_scene load_steps=3 format=3 uid="uid://708t47am5inv"]

[ext_resource type="Theme" uid="uid://515wf37aaqlq" path="res://assets/themes/default_theme.tres" id="1_ed28c"]
[ext_resource type="Script" path="res://ui/menus/main_menu.gd" id="1_fnh74"]

[node name="MainMenu" type="Control"]
layout_mode = 3
anchors_preset = 0
offset_right = 1152.0
offset_bottom = 648.0
script = ExtResource("1_fnh74")

[node name="ColorRect" type="ColorRect" parent="."]
layout_mode = 1
anchors_preset = 15
anchor_right = 1.0
anchor_bottom = 1.0
grow_horizontal = 2
grow_vertical = 2
color = Color(0.0666667, 0.0862745, 0.121569, 1)

[node name="MarginContainer" type="MarginContainer" parent="."]
layout_mode = 1
anchors_preset = 15
anchor_right = 1.0
anchor_bottom = 1.0
grow_horizontal = 2
grow_vertical = 2
theme_override_constants/margin_left = 32
theme_override_constants/margin_top = 32
theme_override_constants/margin_right = 32
theme_override_constants/margin_bottom = 32

[node name="VBoxContainer" type="VBoxContainer" parent="MarginContainer"]
layout_mode = 2

[node name="TitleLabel" type="Label" parent="MarginContainer/VBoxContainer"]
layout_mode = 2
size_flags_horizontal = 4
size_flags_vertical = 2
theme_override_font_sizes/font_size = 32
text = "Undead Uprising"
horizontal_alignment = 3
vertical_alignment = 3

[node name="ButtonsVBox" type="VBoxContainer" parent="MarginContainer/VBoxContainer"]
layout_mode = 2
size_flags_vertical = 3

[node name="StartGameButton" type="Button" parent="MarginContainer/VBoxContainer/ButtonsVBox"]
layout_mode = 2
size_flags_horizontal = 4
size_flags_vertical = 4
focus_neighbor_top = NodePath("../QuitGameButton")
focus_neighbor_bottom = NodePath("../QuitGameButton")
theme = ExtResource("1_ed28c")
text = "Start Game"

[node name="QuitGameButton" type="Button" parent="MarginContainer/VBoxContainer/ButtonsVBox"]
layout_mode = 2
size_flags_horizontal = 4
size_flags_vertical = 4
focus_neighbor_top = NodePath("../StartGameButton")
focus_neighbor_bottom = NodePath("../StartGameButton")
theme = ExtResource("1_ed28c")
text = "Quit Game"
